Quartus/simulation/qsim/testeerror.msim.vcd
$comment
	File created using the following command:
		vcd file testeerror.msim.vcd -direction
$end
$date
	Tue Nov 12 17:09:34 2024
$end
$version
	ModelSim Version 10.5b
$end
$timescale
	1ps
$end

$scope module half_adder_fault_vlg_vec_tst $end
$var reg 1 ! a $end
$var reg 1 " b $end
$var wire 1 # carry $end
$var wire 1 $ sum $end

$scope module i1 $end
$var wire 1 % gnd $end
$var wire 1 & vcc $end
$var wire 1 ' unknown $end
$var tri1 1 ( devclrn $end
$var tri1 1 ) devpor $end
$var tri1 1 * devoe $end
$var wire 1 + sum~output_o $end
$var wire 1 , carry~output_o $end
$var wire 1 - a~input_o $end
$var wire 1 . b~input_o $end
$var wire 1 / sum~0_combout $end
$var wire 1 0 carry~0_combout $end
$upscope $end
$upscope $end
$enddefinitions $end
#0
$dumpvars
0!
0"
1#
0$
0%
1&
x'
1(
1)
1*
0+
1,
0-
0.
0/
00
$end
#500000
1!
1-
1/
1+
1$
#1000000
1"
0!
1.
0-
#1500000
1!
1-
10
0/
0+
0,
0#
0$
#2000000
0"
0!
0.
0-
00
1,
1#
#2500000
1!
1-
1/
1+
1$
#3000000
1"
0!
1.
0-
#3500000
1!
1-
10
0/
0+
0,
0#
0$
